\contentsline {section}{\numberline {1}Introduction To The System}{2}{}%
\contentsline {section}{\numberline {2}Virtual Machines}{3}{}%
\contentsline {subsection}{\numberline {2.1}Overview}{3}{}%
\contentsline {subsection}{\numberline {2.2}Access Levels}{3}{}%
\contentsline {subsection}{\numberline {2.3}Privilege Levels}{3}{}%
\contentsline {subsection}{\numberline {2.4}Priority Levels}{3}{}%
