\relax 
\@writefile{toc}{\contentsline {section}{\numberline {1}Introduction To The System}{2}{}\protected@file@percent }
\@writefile{toc}{\contentsline {section}{\numberline {2}Virtual Machines}{3}{}\protected@file@percent }
\@writefile{toc}{\contentsline {subsection}{\numberline {2.1}Overview}{3}{}\protected@file@percent }
\@writefile{toc}{\contentsline {subsection}{\numberline {2.2}Access Levels}{3}{}\protected@file@percent }
\@writefile{toc}{\contentsline {subsection}{\numberline {2.3}Privilege Levels}{3}{}\protected@file@percent }
\@writefile{toc}{\contentsline {subsection}{\numberline {2.4}Priority Levels}{3}{}\protected@file@percent }
\gdef \@abspage@last{4}
